[?1h=[?25l[H[2J(B[mtop - 15:43:18 up 20:14,  1 user,  load average: 0,17, 0,21, 0,42(B[m[39;49m(B[m[39;49m[K
Tarefas:(B[m[39;49m[1m 243 (B[m[39;49mtotal,(B[m[39;49m[1m   1 (B[m[39;49mem exec.,(B[m[39;49m[1m 238 (B[m[39;49mdormindo,(B[m[39;49m[1m   4 (B[m[39;49mparado,(B[m[39;49m[1m   0 (B[m[39;49mzumbi(B[m[39;49m(B[m[39;49m[K
%CPU(s):(B[m[39;49m[1m  0,0 (B[m[39;49mus,(B[m[39;49m[1m  1,6 (B[m[39;49msis,(B[m[39;49m[1m  0,0 (B[m[39;49mni,(B[m[39;49m[1m 96,8 (B[m[39;49moc,(B[m[39;49m[1m  0,0 (B[m[39;49mag,(B[m[39;49m[1m  0,0 (B[m[39;49mih,(B[m[39;49m[1m  1,6 (B[m[39;49mis(B[m[39;49m[1m  0,0 (B[m[39;49mtr(B[m[39;49m(B[m[39;49m[K
MB mem :(B[m[39;49m[1m   7952,3 (B[m[39;49mtotal,(B[m[39;49m[1m   4302,9 (B[m[39;49mlivre,(B[m[39;49m[1m   1976,0 (B[m[39;49musados,(B[m[39;49m[1m   1673,4 (B[m[39;49mbuff/cache(B[m[39;49m(B[m[39;49m[K
MB swap:(B[m[39;49m[1m    448,4 (B[m[39;49mtotal,(B[m[39;49m[1m    448,4 (B[m[39;49mlivre,(B[m[39;49m[1m      0,0 (B[m[39;49musados,(B[m[39;49m[1m   5605,9 (B[m[39;49mmem dispon.(B[m[39;49m(B[m[39;49m[K
[K
[7m    PID USUARIO   PR  NI    VIRT    RES    SHR S  %CPU  %MEM    TEMPO+ COMANDO                            (B[m[39;49m[K
(B[m   1153 amilton   20   0 5505388 519548 189108 S  12,5   6,4  43:13.45 gnome-shell                        (B[m[39;49m[K
(B[m  12634 root      20   0       0      0      0 I   6,2   0,0   0:00.17 kworker/u8:1-events_unbound        (B[m[39;49m[K
(B[m[1m  12664 amilton   20   0   21696   4444   3616 R   6,2   0,1   0:00.01 top                                (B[m[39;49m[K
(B[m      1 root      20   0  164760  10968   7788 S   0,0   0,1   0:04.79 systemd                            (B[m[39;49m[K
(B[m      2 root      20   0       0      0      0 S   0,0   0,0   0:00.10 kthreadd                           (B[m[39;49m[K
(B[m      3 root       0 -20       0      0      0 I   0,0   0,0   0:00.00 rcu_gp                             (B[m[39;49m[K
(B[m      4 root       0 -20       0      0      0 I   0,0   0,0   0:00.00 rcu_par_gp                         (B[m[39;49m[K
(B[m      6 root       0 -20       0      0      0 I   0,0   0,0   0:00.00 kworker/0:0H-events_highpri        (B[m[39;49m[K
(B[m      8 root       0 -20       0      0      0 I   0,0   0,0   0:00.00 mm_percpu_wq                       (B[m[39;49m[K
(B[m      9 root      20   0       0      0      0 S   0,0   0,0   0:00.00 rcu_tasks_rude_                    (B[m[39;49m[K
(B[m     10 root      20   0       0      0      0 S   0,0   0,0   0:00.00 rcu_tasks_trace                    (B[m[39;49m[K
(B[m     11 root      20   0       0      0      0 S   0,0   0,0   0:00.58 ksoftirqd/0                        (B[m[39;49m[K
(B[m     12 root      20   0       0      0      0 I   0,0   0,0   0:13.44 rcu_sched                          (B[m[39;49m[K
(B[m     13 root      rt   0       0      0      0 S   0,0   0,0   0:01.86 migration/0                        (B[m[39;49m[K
(B[m     14 root     -51   0       0      0      0 S   0,0   0,0   0:00.00 idle_inject/0                      (B[m[39;49m[K
(B[m     16 root      20   0       0      0      0 S   0,0   0,0   0:00.00 cpuhp/0                            (B[m[39;49m[K
(B[m     17 root      20   0       0      0      0 S   0,0   0,0   0:00.00 cpuhp/1                            (B[m[39;49m[K
(B[m     18 root     -51   0       0      0      0 S   0,0   0,0   0:00.00 idle_inject/1                      (B[m[39;49m[K
(B[m     19 root      rt   0       0      0      0 S   0,0   0,0   0:04.29 migration/1                        (B[m[39;49m[K
(B[m     20 root      20   0       0      0      0 S   0,0   0,0   0:00.32 ksoftirqd/1                        (B[m[39;49m[K[H(B[mtop - 15:43:21 up 20:14,  1 user,  load average: 0,17, 0,21, 0,42(B[m[39;49m(B[m[39;49m[K

%CPU(s):(B[m[39;49m[1m  0,0 (B[m[39;49mus,(B[m[39;49m[1m  0,8 (B[m[39;49msis,(B[m[39;49m[1m  0,0 (B[m[39;49mni,(B[m[39;49m[1m 99,2 (B[m[39;49moc,(B[m[39;49m[1m  0,0 (B[m[39;49mag,(B[m[39;49m[1m  0,0 (B[m[39;49mih,(B[m[39;49m[1m  0,0 (B[m[39;49mis(B[m[39;49m[1m  0,0 (B[m[39;49mtr(B[m[39;49m(B[m[39;49m[K


[K

(B[m   1008 amilton    9 -11 2466312  19988  15536 S   1,7   0,2  17:17.09 pulseaudio                         (B[m[39;49m[K
(B[m   1153 amilton   20   0 5505388 519548 189108 S   1,0   6,4  43:13.48 gnome-shell                        (B[m[39;49m[K
(B[m   1493 amilton   20   0  162032   2712   2332 S   0,3   0,0   5:51.48 VBoxClient                         (B[m[39;49m[K
(B[m   3099 amilton   20   0  414428  53732  40228 S   0,3   0,7   0:47.68 gnome-terminal-                    (B[m[39;49m[K
(B[m  11376 amilton   20   0 2494300 149512 103612 S   0,3   1,8   1:15.76 Isolated Web Co                    (B[m[39;49m[K
(B[m  12509 root      20   0       0      0      0 I   0,3   0,0   0:00.23 kworker/0:2-events                 (B[m[39;49m[K
(B[m  12627 root      20   0       0      0      0 I   0,3   0,0   0:00.10 kworker/1:0-mm_percpu_wq           (B[m[39;49m[K
(B[m      1 root      20   0  164760  10968   7788 S   0,0   0,1   0:04.79 systemd                            (B[m[39;49m[K
(B[m      2 root      20   0       0      0      0 S   0,0   0,0   0:00.10 kthreadd                           (B[m[39;49m[K
(B[m      3 root       0 -20       0      0      0 I   0,0   0,0   0:00.00 rcu_gp                             (B[m[39;49m[K
(B[m      4 root       0 -20       0      0      0 I   0,0   0,0   0:00.00 rcu_par_gp                         (B[m[39;49m[K
(B[m      6 root       0 -20       0      0      0 I   0,0   0,0   0:00.00 kworker/0:0H-events_highpri        (B[m[39;49m[K
(B[m      8 root       0 -20       0      0      0 I   0,0   0,0   0:00.00 mm_percpu_wq                       (B[m[39;49m[K
(B[m      9 root      20   0       0      0      0 S   0,0   0,0   0:00.00 rcu_tasks_rude_                    (B[m[39;49m[K
(B[m     10 root      20   0       0      0      0 S   0,0   0,0   0:00.00 rcu_tasks_trace                    (B[m[39;49m[K
(B[m     11 root      20   0       0      0      0 S   0,0   0,0   0:00.58 ksoftirqd/0                        (B[m[39;49m[K
(B[m     12 root      20   0       0      0      0 I   0,0   0,0   0:13.44 rcu_sched                          (B[m[39;49m[K
(B[m     13 root      rt   0       0      0      0 S   0,0   0,0   0:01.86 migration/0                        (B[m[39;49m[K
(B[m     14 root     -51   0       0      0      0 S   0,0   0,0   0:00.00 idle_inject/0                      (B[m[39;49m[K
(B[m     16 root      20   0       0      0      0 S   0,0   0,0   0:00.00 cpuhp/0                            (B[m[39;49m[K[?1l>[28;1H
[?12l[?25h[K